report
…
    Author

             Nathan Lee, Noah Nayve, Ryan Ekdahl, Taiga Sobajima 

library(httr)
library(tidyjson)
library(jsonlite)
library(tidyverse)
library(plotly)

plastics <- read_csv('https://raw.githubusercontent.com/rfordatascience/tidytuesday/main/data/2021/2021-01-26/plastics.csv')
plastics

# A tibble: 13,380 × 14
   country   year parent_company empty  hdpe  ldpe     o   pet    pp    ps   pvc
   <chr>    <dbl> <chr>          <dbl> <dbl> <dbl> <dbl> <dbl> <dbl> <dbl> <dbl>
 1 Argenti…  2019 Grand Total        0   215    55   607  1376   281   116    18
 2 Argenti…  2019 Unbranded          0   155    50   532   848   122   114    17
 3 Argenti…  2019 The Coca-Cola…     0     0     0     0   222    35     0     0
 4 Argenti…  2019 Secco              0     0     0     0    39     4     0     0
 5 Argenti…  2019 Doble Cola         0     0     0     0    38     0     0     0
 6 Argenti…  2019 Pritty             0     0     0     0    22     7     0     0
 7 Argenti…  2019 PepsiCo            0     0     0     0    21     6     0     0
 8 Argenti…  2019 Casoni             0     0     0     0    26     0     0     0
 9 Argenti…  2019 Villa Del Sur…     0     0     0     0    19     1     0     0
10 Argenti…  2019 Manaos             0     0     0     0    14     4     0     0
# ℹ 13,370 more rows
# ℹ 3 more variables: grand_total <dbl>, num_events <dbl>, volunteers <dbl>
…
# Applying function to all countries
plastics |>
  distinct(country) |>
  pull(country) |>
  map_dfr(.f = country_total_summary)

# A tibble: 69 × 6
   Country         Mean     SD Median     IQR   Sum
   <chr>          <dbl>  <dbl>  <dbl>   <dbl> <dbl>
 1 Argentina      12.8   146.       1    1     6422
 2 Australia      23.6   118.       2    4     1674
 3 Bangladesh     14.4    27.4      8   12     2415
 4 Benin        2580.   2782.    2626 4770.   10318
 5 Bhutan       1400    1917.       0 3500     7000
 6 Brazil         75.2   455.       2    4    11725
 7 Bulgaria        9.54   53.9      0    1.25   496
 8 Burkina Faso  486.   1349.      55  181    20410
 9 Cameroon      113.    702.      18   62.5  17190
10 Canada         27.4   153.       2   11     1889
# ℹ 59 more rows
…
